{
  "authentication_and_authorization": {
    "name": "Authentication \u0026 Authorization",
    "section": "dev",
    "stage": "manage",
    "categories": [
      "authentication_and_authorization"
    ],
    "label": "group::authentication and authorization"
  },
  "workspace": {
    "name": "Workspace",
    "section": "dev",
    "stage": "manage",
    "categories": [
      "subgroups",
      "users",
      "projects"
    ],
    "label": "group::workspace"
  },
  "compliance": {
    "name": "Compliance",
    "section": "dev",
    "stage": "manage",
    "categories": [
      "audit_events",
      "audit_reports",
      "compliance_management"
    ],
    "label": "group::compliance"
  },
  "import": {
    "name": "Import",
    "section": "dev",
    "stage": "manage",
    "categories": [
      "importers",
      "internationalization"
    ],
    "label": "group::import"
  },
  "optimize": {
    "name": "Optimize",
    "section": "dev",
    "stage": "manage",
    "categories": [
      "devops_reports",
      "value_stream_management"
    ],
    "label": "group::optimize"
  },
  "project_management": {
    "name": "Project Management",
    "section": "dev",
    "stage": "plan",
    "categories": [
      "team_planning",
      "planning_analytics"
    ],
    "label": "group::project management"
  },
  "product_planning": {
    "name": "Product Planning",
    "section": "dev",
    "stage": "plan",
    "categories": [
      "portfolio_management",
      "design_management"
    ],
    "label": "group::product planning"
  },
  "certify": {
    "name": "Certify",
    "section": "dev",
    "stage": "plan",
    "categories": [
      "requirements_management",
      "quality_management",
      "service_desk"
    ],
    "label": "group:certify"
  },
  "source_code": {
    "name": "Source Code",
    "section": "dev",
    "stage": "create",
    "categories": [
      "source_code_management"
    ],
    "label": "group::source code"
  },
  "code_review": {
    "name": "Code Review",
    "section": "dev",
    "stage": "create",
    "categories": [
      "code_review",
      "editor_extension"
    ],
    "label": "group::code review"
  },
  "editor": {
    "name": "Editor",
    "section": "dev",
    "stage": "create",
    "categories": [
      "web_ide",
      "snippets",
      "live_preview",
      "wiki",
      "static_site_editor"
    ],
    "label": "group::editor"
  },
  "gitaly": {
    "name": "Gitaly",
    "section": "dev",
    "stage": "create",
    "categories": [
      "gitaly"
    ],
    "label": "group::gitaly"
  },
  "integrations": {
    "name": "Integrations",
    "section": "dev",
    "stage": "ecosystem",
    "categories": [
      "integrations"
    ],
    "label": "group::integrations"
  },
  "foundations": {
    "name": "Foundations",
    "section": "dev",
    "stage": "ecosystem",
    "categories": [
      "design_system",
      "navigation",
      "gitlab_docs"
    ],
    "label": "group::foundations"
  },
  "pipeline_execution": {
    "name": "Pipeline Execution",
    "section": "ops",
    "stage": "verify",
    "categories": [
      "continuous_integration",
      "merge_trains",
      "continuous_integration_scaling"
    ],
    "label": "group::pipeline execution"
  },
  "pipeline_authoring": {
    "name": "Pipeline Authoring",
    "section": "ops",
    "stage": "verify",
    "categories": [
      "pipeline_authoring",
      "jenkins_importer"
    ],
    "label": "group::pipeline authoring"
  },
  "runner": {
    "name": "Runner",
    "section": "ops",
    "stage": "verify",
    "categories": [
      "runner",
      "runner_saas",
      "runner_fleet"
    ],
    "label": "group::runner"
  },
  "testing": {
    "name": "Testing",
    "section": "ops",
    "stage": "verify",
    "categories": [
      "code_testing",
      "performance_testing",
      "usability_testing",
      "accessibility_testing",
      "build_artifacts",
      "review_apps"
    ],
    "label": "group::testing"
  },
  "package": {
    "name": "Package",
    "section": "ops",
    "stage": "package",
    "categories": [
      "container_registry",
      "package_registry",
      "helm_chart_registry",
      "dependency_proxy",
      "dependency_firewall",
      "git_lfs"
    ],
    "label": "group::package"
  },
  "static_analysis": {
    "name": "Static Analysis",
    "section": "sec",
    "stage": "secure",
    "categories": [
      "static_application_security_testing",
      "secret_detection",
      "code_quality"
    ],
    "label": "group::static analysis"
  },
  "dynamic_analysis": {
    "name": "Dynamic Analysis",
    "section": "sec",
    "stage": "secure",
    "categories": [
      "dynamic_application_security_testing",
      "fuzz_testing",
      "api_security",
      "interactive_application_security_testing",
      "attack_emulation"
    ],
    "label": "group::dynamic analysis"
  },
  "composition_analysis": {
    "name": "Composition Analysis",
    "section": "sec",
    "stage": "secure",
    "categories": [
      "dependency_scanning",
      "license_compliance"
    ],
    "label": "group::composition analysis"
  },
  "threat_insights": {
    "name": "Threat Insights",
    "section": "sec",
    "stage": "secure",
    "categories": [
      "vulnerability_management"
    ],
    "label": "group::threat insights"
  },
  "vulnerability_research": {
    "name": "Vulnerability Research",
    "section": "sec",
    "stage": "secure",
    "categories": [
      "vulnerability_database",
      "security_benchmarking"
    ],
    "label": "group::vulnerability research"
  },
  "release": {
    "name": "Release",
    "section": "ops",
    "stage": "release",
    "categories": [
      "continuous_delivery",
      "advanced_deployments",
      "feature_flags",
      "release_orchestration",
      "release_evidence",
      "pages",
      "environment_management"
    ],
    "label": "group::release"
  },
  "configure": {
    "name": "Configure",
    "section": "ops",
    "stage": "configure",
    "categories": [
      "auto_devops",
      "infrastructure_as_code",
      "kubernetes_management",
      "cluster_cost_management",
      "chatops",
      "secrets_management",
      "deployment_management"
    ],
    "label": "group::configure"
  },
  "monitor": {
    "name": "Monitor",
    "section": "ops",
    "stage": "monitor",
    "categories": [
      "error_tracking",
      "incident_management",
      "on_call_schedule_management",
      "metrics",
      "tracing",
      "logging",
      "synthetic_monitoring",
      "self_monitoring",
      "runbooks"
    ],
    "label": "group::monitor"
  },
  "container_security": {
    "name": "Container Security",
    "section": "sec",
    "stage": "protect",
    "categories": [
      "security_orchestration",
      "container_network_security",
      "container_host_security",
      "container_scanning"
    ],
    "label": "group::container security"
  },
  "purchase": {
    "name": "Purchase",
    "section": "fulfillment",
    "stage": "fulfillment",
    "categories": [
      "purchase"
    ],
    "label": "group::purchase"
  },
  "license": {
    "name": "License",
    "section": "fulfillment",
    "stage": "fulfillment",
    "categories": [
      "license"
    ],
    "label": "group::license"
  },
  "utilization": {
    "name": "Utilization",
    "section": "fulfillment",
    "stage": "fulfillment",
    "categories": [
      "utilization"
    ],
    "label": "group::utilization"
  },
  "activation": {
    "name": "Activation",
    "section": "growth",
    "stage": "growth",
    "categories": [
      "experimentation_activation",
      "onboarding"
    ],
    "label": "group::activation"
  },
  "conversion": {
    "name": "Conversion",
    "section": "growth",
    "stage": "growth",
    "categories": [
      "experimentation_conversion"
    ],
    "label": "group::conversion"
  },
  "expansion": {
    "name": "Expansion",
    "section": "growth",
    "stage": "growth",
    "categories": [
      "experimentation_expansion"
    ],
    "label": "group::expansion"
  },
  "adoption": {
    "name": "Adoption",
    "section": "growth",
    "stage": "growth",
    "categories": [
      "experimentation_adoption"
    ],
    "label": "group::adoption"
  },
  "product_intelligence": {
    "name": "Product Intelligence",
    "section": "growth",
    "stage": "growth",
    "categories": [
      "product_analytics",
      "usage_ping",
      "service_ping",
      "privacy_control_center"
    ],
    "label": "group::product intelligence"
  },
  "distribution_build": {
    "name": "Distribution:Build",
    "section": "enablement",
    "stage": "enablement",
    "categories": [
      "build"
    ],
    "label": "group::distribution"
  },
  "distribution_deploy": {
    "name": "Distribution:Deploy",
    "section": "enablement",
    "stage": "enablement",
    "categories": [
      "omnibus_package",
      "cloud_native_installation"
    ],
    "label": "group::distribution"
  },
  "geo": {
    "name": "Geo",
    "section": "enablement",
    "stage": "enablement",
    "categories": [
      "geo_replication",
      "disaster_recovery",
      "backup_restore"
    ],
    "label": "group::geo"
  },
  "memory": {
    "name": "Memory",
    "section": "enablement",
    "stage": "enablement",
    "categories": [
      "memory",
      "redis"
    ],
    "label": "group::memory"
  },
  "global_search": {
    "name": "Global Search",
    "section": "enablement",
    "stage": "enablement",
    "categories": [
      "global_search"
    ],
    "label": "group::global search"
  },
  "database": {
    "name": "Database",
    "section": "enablement",
    "stage": "enablement",
    "categories": [
      "database"
    ],
    "label": "group::database"
  },
  "sharding": {
    "name": "Sharding",
    "section": "enablement",
    "stage": "enablement",
    "categories": [
      "sharding"
    ],
    "label": "group::sharding"
  },
  "delivery": {
    "name": "Delivery",
    "section": "platforms",
    "stage": "platforms",
    "categories": [
      "delivery"
    ],
    "label": "group::delivery"
  },
  "scalability": {
    "name": "Scalability",
    "section": "platforms",
    "stage": "platforms",
    "categories": [
      "scalability",
      "error_budgets"
    ],
    "label": "group::scalability"
  },
  "horse": {
    "name": "Project Horse",
    "section": "platforms",
    "stage": "platforms",
    "categories": [
      "horse"
    ],
    "label": "group::horse"
  },
  "applied_ml": {
    "name": "Applied Machine Learning",
    "section": "modelops",
    "stage": "ModelOps",
    "categories": [
      "workflow_automation",
      "intel_code_security"
    ],
    "label": "group::applied ml"
  },
  "anti_abuse": {
    "name": "Anti-Abuse",
    "section": "modelops",
    "stage": "ModelOps",
    "categories": [
      "instance_resiliency",
      "insider_threat"
    ],
    "label": "group::anti abuse"
  },
  "mlops": {
    "name": "MLOps",
    "section": "modelops",
    "stage": "ModelOps",
    "categories": [
      "mlops"
    ],
    "label": "group::mlops"
  },
  "dataops": {
    "name": "DataOps",
    "section": "modelops",
    "stage": "ModelOps",
    "categories": [
      "dataops"
    ],
    "label": "group::dataops"
  },
  "moble_devops": {
    "name": "DevOps for Mobile Apps",
    "section": "seg",
    "stage": "mobile",
    "categories": [
      "mobile_signing_deployment"
    ],
    "label": "group::moble devops"
  },
  "5-min-app": {
    "name": "Five Minute Production App",
    "section": "seg",
    "stage": "deploy",
    "categories": [
      "five_minute_production_app"
    ],
    "label": "group::5-min-app"
  }
}
